<?xml version="1.0" encoding="utf-8"?>
<!DOCTYPE eagle SYSTEM "eagle.dtd">
<eagle version="9.6.2">
<drawing>
<settings>
<setting alwaysvectorfont="no"/>
<setting verticaltext="up"/>
</settings>
<grid distance="0.1" unitdist="inch" unit="inch" style="lines" multiple="1" display="no" altdistance="0.01" altunitdist="inch" altunit="inch"/>
<layers>
<layer number="1" name="Top" color="4" fill="1" visible="no" active="no"/>
<layer number="2" name="Route2" color="1" fill="3" visible="no" active="no"/>
<layer number="3" name="Route3" color="4" fill="3" visible="no" active="no"/>
<layer number="4" name="Route4" color="1" fill="4" visible="no" active="no"/>
<layer number="5" name="Route5" color="4" fill="4" visible="no" active="no"/>
<layer number="6" name="Route6" color="1" fill="8" visible="no" active="no"/>
<layer number="7" name="Route7" color="4" fill="8" visible="no" active="no"/>
<layer number="8" name="Route8" color="1" fill="2" visible="no" active="no"/>
<layer number="9" name="Route9" color="4" fill="2" visible="no" active="no"/>
<layer number="10" name="Route10" color="1" fill="7" visible="no" active="no"/>
<layer number="11" name="Route11" color="4" fill="7" visible="no" active="no"/>
<layer number="12" name="Route12" color="1" fill="5" visible="no" active="no"/>
<layer number="13" name="Route13" color="4" fill="5" visible="no" active="no"/>
<layer number="14" name="Route14" color="1" fill="6" visible="no" active="no"/>
<layer number="15" name="Route15" color="4" fill="6" visible="no" active="no"/>
<layer number="16" name="Bottom" color="1" fill="1" visible="no" active="no"/>
<layer number="17" name="Pads" color="2" fill="1" visible="no" active="no"/>
<layer number="18" name="Vias" color="2" fill="1" visible="no" active="no"/>
<layer number="19" name="Unrouted" color="6" fill="1" visible="no" active="no"/>
<layer number="20" name="Dimension" color="15" fill="1" visible="no" active="no"/>
<layer number="21" name="tPlace" color="14" fill="1" visible="no" active="no"/>
<layer number="22" name="bPlace" color="7" fill="1" visible="no" active="no"/>
<layer number="23" name="tOrigins" color="15" fill="1" visible="no" active="no"/>
<layer number="24" name="bOrigins" color="15" fill="1" visible="no" active="no"/>
<layer number="25" name="tNames" color="7" fill="1" visible="no" active="no"/>
<layer number="26" name="bNames" color="7" fill="1" visible="no" active="no"/>
<layer number="27" name="tValues" color="7" fill="1" visible="no" active="no"/>
<layer number="28" name="bValues" color="7" fill="1" visible="no" active="no"/>
<layer number="29" name="tStop" color="7" fill="3" visible="no" active="no"/>
<layer number="30" name="bStop" color="7" fill="6" visible="no" active="no"/>
<layer number="31" name="tCream" color="7" fill="4" visible="no" active="no"/>
<layer number="32" name="bCream" color="7" fill="5" visible="no" active="no"/>
<layer number="33" name="tFinish" color="6" fill="3" visible="no" active="no"/>
<layer number="34" name="bFinish" color="6" fill="6" visible="no" active="no"/>
<layer number="35" name="tGlue" color="7" fill="4" visible="no" active="no"/>
<layer number="36" name="bGlue" color="7" fill="5" visible="no" active="no"/>
<layer number="37" name="tTest" color="7" fill="1" visible="no" active="no"/>
<layer number="38" name="bTest" color="7" fill="1" visible="no" active="no"/>
<layer number="39" name="tKeepout" color="4" fill="11" visible="no" active="no"/>
<layer number="40" name="bKeepout" color="1" fill="11" visible="no" active="no"/>
<layer number="41" name="tRestrict" color="4" fill="10" visible="no" active="no"/>
<layer number="42" name="bRestrict" color="1" fill="10" visible="no" active="no"/>
<layer number="43" name="vRestrict" color="2" fill="10" visible="no" active="no"/>
<layer number="44" name="Drills" color="7" fill="1" visible="no" active="no"/>
<layer number="45" name="Holes" color="7" fill="1" visible="no" active="no"/>
<layer number="46" name="Milling" color="3" fill="1" visible="no" active="no"/>
<layer number="47" name="Measures" color="7" fill="1" visible="no" active="no"/>
<layer number="48" name="Document" color="7" fill="1" visible="no" active="no"/>
<layer number="49" name="Reference" color="7" fill="1" visible="no" active="no"/>
<layer number="50" name="dxf" color="7" fill="1" visible="no" active="no"/>
<layer number="51" name="tDocu" color="7" fill="1" visible="no" active="no"/>
<layer number="52" name="bDocu" color="7" fill="1" visible="no" active="no"/>
<layer number="53" name="tGND_GNDA" color="7" fill="9" visible="no" active="no"/>
<layer number="54" name="bGND_GNDA" color="1" fill="9" visible="no" active="no"/>
<layer number="56" name="wert" color="7" fill="1" visible="no" active="no"/>
<layer number="57" name="tCAD" color="7" fill="1" visible="no" active="no"/>
<layer number="59" name="tCarbon" color="7" fill="1" visible="no" active="no"/>
<layer number="60" name="bCarbon" color="7" fill="1" visible="no" active="no"/>
<layer number="88" name="SimResults" color="9" fill="1" visible="yes" active="yes"/>
<layer number="89" name="SimProbes" color="9" fill="1" visible="yes" active="yes"/>
<layer number="90" name="Modules" color="5" fill="1" visible="yes" active="yes"/>
<layer number="91" name="Nets" color="2" fill="1" visible="yes" active="yes"/>
<layer number="92" name="Busses" color="1" fill="1" visible="yes" active="yes"/>
<layer number="93" name="Pins" color="2" fill="1" visible="no" active="yes"/>
<layer number="94" name="Symbols" color="4" fill="1" visible="yes" active="yes"/>
<layer number="95" name="Names" color="7" fill="1" visible="yes" active="yes"/>
<layer number="96" name="Values" color="7" fill="1" visible="yes" active="yes"/>
<layer number="97" name="Info" color="7" fill="1" visible="yes" active="yes"/>
<layer number="98" name="Guide" color="6" fill="1" visible="yes" active="yes"/>
<layer number="99" name="SpiceOrder" color="7" fill="1" visible="no" active="no"/>
<layer number="100" name="Muster" color="7" fill="1" visible="no" active="no"/>
<layer number="101" name="Patch_Top" color="12" fill="4" visible="no" active="yes"/>
<layer number="102" name="Vscore" color="7" fill="1" visible="no" active="yes"/>
<layer number="103" name="fp3" color="7" fill="1" visible="no" active="yes"/>
<layer number="104" name="Name" color="7" fill="1" visible="no" active="yes"/>
<layer number="105" name="Beschreib" color="9" fill="1" visible="no" active="yes"/>
<layer number="106" name="BGA-Top" color="4" fill="1" visible="no" active="yes"/>
<layer number="107" name="BD-Top" color="5" fill="1" visible="no" active="yes"/>
<layer number="108" name="fp8" color="7" fill="1" visible="no" active="yes"/>
<layer number="109" name="fp9" color="7" fill="1" visible="no" active="yes"/>
<layer number="110" name="fp0" color="7" fill="1" visible="no" active="yes"/>
<layer number="111" name="LPC17xx" color="7" fill="1" visible="no" active="yes"/>
<layer number="112" name="tSilk" color="7" fill="1" visible="no" active="yes"/>
<layer number="113" name="ReferenceLS" color="7" fill="1" visible="no" active="no"/>
<layer number="116" name="Patch_BOT" color="9" fill="4" visible="no" active="yes"/>
<layer number="118" name="Rect_Pads" color="7" fill="1" visible="no" active="no"/>
<layer number="121" name="_tsilk" color="7" fill="1" visible="no" active="yes"/>
<layer number="122" name="_bsilk" color="7" fill="1" visible="no" active="yes"/>
<layer number="123" name="tTestmark" color="7" fill="1" visible="no" active="yes"/>
<layer number="124" name="bTestmark" color="7" fill="1" visible="no" active="yes"/>
<layer number="125" name="_tNames" color="7" fill="1" visible="no" active="yes"/>
<layer number="126" name="_bNames" color="7" fill="1" visible="no" active="yes"/>
<layer number="127" name="_tValues" color="7" fill="1" visible="no" active="yes"/>
<layer number="128" name="_bValues" color="7" fill="1" visible="no" active="yes"/>
<layer number="129" name="Mask" color="7" fill="1" visible="yes" active="yes"/>
<layer number="131" name="tAdjust" color="7" fill="1" visible="no" active="yes"/>
<layer number="132" name="bAdjust" color="7" fill="1" visible="no" active="yes"/>
<layer number="144" name="Drill_legend" color="7" fill="1" visible="no" active="yes"/>
<layer number="150" name="Notes" color="7" fill="1" visible="no" active="yes"/>
<layer number="151" name="HeatSink" color="7" fill="1" visible="no" active="yes"/>
<layer number="152" name="_bDocu" color="7" fill="1" visible="no" active="yes"/>
<layer number="153" name="FabDoc1" color="6" fill="1" visible="no" active="no"/>
<layer number="154" name="FabDoc2" color="2" fill="1" visible="no" active="no"/>
<layer number="155" name="FabDoc3" color="7" fill="15" visible="no" active="no"/>
<layer number="199" name="Contour" color="7" fill="1" visible="no" active="yes"/>
<layer number="200" name="200bmp" color="1" fill="10" visible="no" active="yes"/>
<layer number="201" name="201bmp" color="2" fill="1" visible="no" active="no"/>
<layer number="202" name="202bmp" color="3" fill="1" visible="no" active="no"/>
<layer number="203" name="203bmp" color="4" fill="10" visible="no" active="yes"/>
<layer number="204" name="204bmp" color="5" fill="10" visible="no" active="yes"/>
<layer number="205" name="205bmp" color="6" fill="10" visible="no" active="yes"/>
<layer number="206" name="206bmp" color="7" fill="10" visible="no" active="yes"/>
<layer number="207" name="207bmp" color="8" fill="10" visible="no" active="yes"/>
<layer number="208" name="208bmp" color="9" fill="10" visible="no" active="yes"/>
<layer number="209" name="209bmp" color="7" fill="1" visible="no" active="yes"/>
<layer number="210" name="210bmp" color="7" fill="1" visible="no" active="yes"/>
<layer number="211" name="211bmp" color="7" fill="1" visible="no" active="yes"/>
<layer number="212" name="212bmp" color="7" fill="1" visible="no" active="yes"/>
<layer number="213" name="213bmp" color="7" fill="1" visible="no" active="yes"/>
<layer number="214" name="214bmp" color="7" fill="1" visible="no" active="yes"/>
<layer number="215" name="215bmp" color="7" fill="1" visible="no" active="yes"/>
<layer number="216" name="216bmp" color="7" fill="1" visible="no" active="yes"/>
<layer number="217" name="217bmp" color="18" fill="1" visible="no" active="no"/>
<layer number="218" name="218bmp" color="19" fill="1" visible="no" active="no"/>
<layer number="219" name="219bmp" color="20" fill="1" visible="no" active="no"/>
<layer number="220" name="220bmp" color="21" fill="1" visible="no" active="no"/>
<layer number="221" name="221bmp" color="22" fill="1" visible="no" active="no"/>
<layer number="222" name="222bmp" color="23" fill="1" visible="no" active="no"/>
<layer number="223" name="223bmp" color="24" fill="1" visible="no" active="no"/>
<layer number="224" name="224bmp" color="25" fill="1" visible="no" active="no"/>
<layer number="225" name="225bmp" color="7" fill="1" visible="yes" active="yes"/>
<layer number="226" name="226bmp" color="7" fill="1" visible="yes" active="yes"/>
<layer number="227" name="227bmp" color="7" fill="1" visible="yes" active="yes"/>
<layer number="228" name="228bmp" color="7" fill="1" visible="yes" active="yes"/>
<layer number="229" name="229bmp" color="7" fill="1" visible="yes" active="yes"/>
<layer number="230" name="230bmp" color="7" fill="1" visible="yes" active="yes"/>
<layer number="231" name="Eagle3D_PG1" color="7" fill="1" visible="no" active="no"/>
<layer number="232" name="Eagle3D_PG2" color="7" fill="1" visible="no" active="no"/>
<layer number="233" name="Eagle3D_PG3" color="7" fill="1" visible="no" active="no"/>
<layer number="248" name="Housing" color="7" fill="1" visible="no" active="yes"/>
<layer number="249" name="Edge" color="7" fill="1" visible="no" active="yes"/>
<layer number="250" name="Descript" color="7" fill="1" visible="no" active="no"/>
<layer number="251" name="SMDround" color="7" fill="1" visible="no" active="no"/>
<layer number="254" name="cooling" color="7" fill="1" visible="no" active="yes"/>
<layer number="255" name="routoute" color="7" fill="1" visible="yes" active="yes"/>
</layers>
<schematic xreflabel="%F%N/%S.%C%R" xrefpart="/%S.%C%R">
<libraries>
<library name="adafruit" urn="urn:adsk.eagle:library:420">
<packages>
<package name="0805-THM" urn="urn:adsk.eagle:footprint:6240080/1" library_version="2">
<wire x1="5.08" y1="0" x2="4.064" y2="0" width="0.6096" layer="51"/>
<wire x1="-5.08" y1="0" x2="-4.064" y2="0" width="0.6096" layer="51"/>
<wire x1="-3.175" y1="0.889" x2="-2.921" y2="1.143" width="0.1524" layer="21" curve="-90"/>
<wire x1="-3.175" y1="-0.889" x2="-2.921" y2="-1.143" width="0.1524" layer="21" curve="90"/>
<wire x1="2.921" y1="-1.143" x2="3.175" y2="-0.889" width="0.1524" layer="21" curve="90"/>
<wire x1="2.921" y1="1.143" x2="3.175" y2="0.889" width="0.1524" layer="21" curve="-90"/>
<wire x1="-3.175" y1="-0.889" x2="-3.175" y2="0.889" width="0.1524" layer="21"/>
<wire x1="-2.921" y1="1.143" x2="-2.54" y2="1.143" width="0.1524" layer="21"/>
<wire x1="-2.413" y1="1.016" x2="-2.54" y2="1.143" width="0.1524" layer="21"/>
<wire x1="-2.921" y1="-1.143" x2="-2.54" y2="-1.143" width="0.1524" layer="21"/>
<wire x1="-2.413" y1="-1.016" x2="-2.54" y2="-1.143" width="0.1524" layer="21"/>
<wire x1="2.413" y1="1.016" x2="2.54" y2="1.143" width="0.1524" layer="21"/>
<wire x1="2.413" y1="1.016" x2="-2.413" y2="1.016" width="0.1524" layer="21"/>
<wire x1="2.413" y1="-1.016" x2="2.54" y2="-1.143" width="0.1524" layer="21"/>
<wire x1="2.413" y1="-1.016" x2="-2.413" y2="-1.016" width="0.1524" layer="21"/>
<wire x1="2.921" y1="1.143" x2="2.54" y2="1.143" width="0.1524" layer="21"/>
<wire x1="2.921" y1="-1.143" x2="2.54" y2="-1.143" width="0.1524" layer="21"/>
<wire x1="3.175" y1="-0.889" x2="3.175" y2="0.889" width="0.1524" layer="21"/>
<wire x1="-0.41" y1="0.635" x2="0.41" y2="0.635" width="0.1524" layer="51"/>
<wire x1="-0.41" y1="-0.635" x2="0.41" y2="-0.635" width="0.1524" layer="51"/>
<wire x1="-1.973" y1="0.983" x2="1.973" y2="0.983" width="0.0508" layer="39"/>
<wire x1="1.973" y1="0.983" x2="1.973" y2="-0.983" width="0.0508" layer="39"/>
<wire x1="1.973" y1="-0.983" x2="-1.973" y2="-0.983" width="0.0508" layer="39"/>
<wire x1="-1.973" y1="-0.983" x2="-1.973" y2="0.983" width="0.0508" layer="39"/>
<wire x1="-4.5" y1="0" x2="-1.1" y2="0" width="0.3048" layer="1"/>
<wire x1="1" y1="0" x2="5.1" y2="0" width="0.3048" layer="1"/>
<pad name="1" x="-5.08" y="0" drill="0.8128" diameter="1.6764" shape="octagon"/>
<pad name="2" x="5.08" y="0" drill="0.8128" diameter="1.6764" shape="octagon"/>
<text x="-3.048" y="1.524" size="1.27" layer="25" ratio="10">&gt;NAME</text>
<text x="-3.1306" y="-2.775" size="1.27" layer="27" ratio="10">&gt;VALUE</text>
<rectangle x1="3.175" y1="-0.3048" x2="4.0386" y2="0.3048" layer="21"/>
<rectangle x1="-4.0386" y1="-0.3048" x2="-3.175" y2="0.3048" layer="21"/>
<rectangle x1="0.4064" y1="-0.6985" x2="1.0564" y2="0.7015" layer="21"/>
<rectangle x1="-1.0668" y1="-0.6985" x2="-0.4168" y2="0.7015" layer="21"/>
<rectangle x1="-1.6254" y1="-0.7" x2="-0.4254" y2="0.7" layer="1"/>
<rectangle x1="0.4254" y1="-0.7" x2="1.6254" y2="0.7" layer="1"/>
<rectangle x1="-1.7254" y1="-0.8" x2="-0.3254" y2="0.8" layer="29"/>
<rectangle x1="0.3254" y1="-0.8" x2="1.7254" y2="0.8" layer="29"/>
<rectangle x1="-1.6254" y1="-0.7" x2="-0.4254" y2="0.7" layer="31"/>
<rectangle x1="0.4254" y1="-0.7" x2="1.6254" y2="0.7" layer="31"/>
</package>
</packages>
<packages3d>
<package3d name="0805-THM" urn="urn:adsk.eagle:package:6240726/1" type="box" library_version="2">
<packageinstances>
<packageinstance name="0805-THM"/>
</packageinstances>
</package3d>
</packages3d>
<symbols>
<symbol name="R-US" urn="urn:adsk.eagle:symbol:6239479/1" library_version="2">
<wire x1="-2.54" y1="0" x2="-2.159" y2="1.016" width="0.2032" layer="94"/>
<wire x1="-2.159" y1="1.016" x2="-1.524" y2="-1.016" width="0.2032" layer="94"/>
<wire x1="-1.524" y1="-1.016" x2="-0.889" y2="1.016" width="0.2032" layer="94"/>
<wire x1="-0.889" y1="1.016" x2="-0.254" y2="-1.016" width="0.2032" layer="94"/>
<wire x1="-0.254" y1="-1.016" x2="0.381" y2="1.016" width="0.2032" layer="94"/>
<wire x1="0.381" y1="1.016" x2="1.016" y2="-1.016" width="0.2032" layer="94"/>
<wire x1="1.016" y1="-1.016" x2="1.651" y2="1.016" width="0.2032" layer="94"/>
<wire x1="1.651" y1="1.016" x2="2.286" y2="-1.016" width="0.2032" layer="94"/>
<wire x1="2.286" y1="-1.016" x2="2.54" y2="0" width="0.2032" layer="94"/>
<text x="-3.81" y="1.4986" size="1.778" layer="95">&gt;NAME</text>
<text x="-3.81" y="-3.302" size="1.778" layer="96">&gt;VALUE</text>
<pin name="2" x="5.08" y="0" visible="off" length="short" direction="pas" swaplevel="1" rot="R180"/>
<pin name="1" x="-5.08" y="0" visible="off" length="short" direction="pas" swaplevel="1"/>
</symbol>
</symbols>
<devicesets>
<deviceset name="FLIPFLOP-RES" urn="urn:adsk.eagle:component:6241036/1" prefix="R" uservalue="yes" library_version="2">
<description>&lt;B&gt;Flip Flop resistor&lt;/b&gt;
&lt;p&gt;
An 0805 resistor inside a standard 1/4W 5% resistor. Makes for easy mods</description>
<gates>
<gate name="G$1" symbol="R-US" x="0" y="0"/>
</gates>
<devices>
<device name="" package="0805-THM">
<connects>
<connect gate="G$1" pin="1" pad="1"/>
<connect gate="G$1" pin="2" pad="2"/>
</connects>
<package3dinstances>
<package3dinstance package3d_urn="urn:adsk.eagle:package:6240726/1"/>
</package3dinstances>
<technologies>
<technology name=""/>
</technologies>
</device>
</devices>
</deviceset>
</devicesets>
</library>
<library name="ngspice-simulation" urn="urn:adsk.eagle:library:527439">
<description>SPICE compatible library parts</description>
<packages>
</packages>
<symbols>
<symbol name="0" urn="urn:adsk.eagle:symbol:527455/1" library_version="18">
<description>Simulation ground symbol (spice node 0)</description>
<wire x1="-2.54" y1="0" x2="2.54" y2="0" width="0.1524" layer="94"/>
<wire x1="2.54" y1="0" x2="0" y2="-2.54" width="0.1524" layer="94"/>
<wire x1="0" y1="-2.54" x2="-2.54" y2="0" width="0.1524" layer="94"/>
<pin name="0" x="0" y="0" visible="off" length="point" direction="sup"/>
</symbol>
</symbols>
<devicesets>
<deviceset name="GND" urn="urn:adsk.eagle:component:527478/1" prefix="X_" library_version="18">
<description>Simulation ground symbol (spice node 0)</description>
<gates>
<gate name="G$1" symbol="0" x="0" y="0"/>
</gates>
<devices>
<device name="">
<technologies>
<technology name="">
<attribute name="SPICEGROUND" value=""/>
<attribute name="_EXTERNAL_" value=""/>
</technology>
</technologies>
</device>
</devices>
</deviceset>
</devicesets>
</library>
<library name="SparkFun-Electromechanical" urn="urn:adsk.eagle:library:516">
<description>&lt;h3&gt;SparkFun Electromechanical Parts&lt;/h3&gt;
This library contains electromechanical devices, like motors, speakers,servos, and relays.
&lt;br&gt;
&lt;br&gt;
We've spent an enormous amount of time creating and checking these footprints and parts, but it is &lt;b&gt; the end user's responsibility&lt;/b&gt; to ensure correctness and suitablity for a given componet or application. 
&lt;br&gt;
&lt;br&gt;If you enjoy using this library, please buy one of our products at &lt;a href=" www.sparkfun.com"&gt;SparkFun.com&lt;/a&gt;.
&lt;br&gt;
&lt;br&gt;
&lt;b&gt;Licensing:&lt;/b&gt; Creative Commons ShareAlike 4.0 International - https://creativecommons.org/licenses/by-sa/4.0/ 
&lt;br&gt;
&lt;br&gt;
You are welcome to use this library for commercial purposes. For attribution, we ask that when you begin to sell your device using our footprint, you email us with a link to the product being sold. We want bragging rights that we helped (in a very small part) to create your 8th world wonder. We would like the opportunity to feature your device on our homepage.</description>
<packages>
<package name="VIBE-MOTOR-10MM" urn="urn:adsk.eagle:footprint:38542/1" library_version="1">
<description>&lt;h3&gt;Vibration Motor&lt;/h3&gt;
&lt;p&gt;10mm vibration motor terminated with tinned wires.&lt;/p&gt;
&lt;p&gt;&lt;a href="https://cdn.sparkfun.com/datasheets/Robotics/B1034.FL45-00-015.pdf"&gt;Datasheet&lt;/a&gt;&lt;/p&gt;
&lt;h4&gt;Devices Using&lt;/h4&gt;
&lt;ul&gt;&lt;li&gt;MOTOR&lt;/li&gt;&lt;/ul&gt;</description>
<wire x1="-1.5" y1="-4.8" x2="-1.5" y2="-7.8" width="0.127" layer="51"/>
<wire x1="-1.5" y1="-7.8" x2="1.5" y2="-7.8" width="0.127" layer="51"/>
<wire x1="1.5" y1="-7.8" x2="1.5" y2="-4.8" width="0.127" layer="51"/>
<circle x="0" y="0" radius="5.0009" width="0.127" layer="51"/>
<pad name="+" x="-5" y="-3.9" drill="0.8" diameter="1.6764"/>
<pad name="-" x="-6.35" y="-2.54" drill="0.8" diameter="1.6764"/>
<text x="-7.562" y="-2" size="1.27" layer="21">-</text>
<text x="-4.446" y="-5.554" size="1.27" layer="21">+</text>
<text x="-5.207" y="0" size="0.6096" layer="25" font="vector" ratio="20" rot="R90" align="bottom-center">&gt;NAME</text>
<text x="-4.699" y="0" size="0.6096" layer="27" font="vector" ratio="20" rot="R90" align="top-center">&gt;VALUE</text>
</package>
</packages>
<packages3d>
<package3d name="VIBE-MOTOR-10MM" urn="urn:adsk.eagle:package:38555/1" type="box" library_version="1">
<description>Vibration Motor
10mm vibration motor terminated with tinned wires.
Datasheet
Devices Using
MOTOR</description>
<packageinstances>
<packageinstance name="VIBE-MOTOR-10MM"/>
</packageinstances>
</package3d>
</packages3d>
<symbols>
<symbol name="MOTOR" urn="urn:adsk.eagle:symbol:38541/1" library_version="1">
<description>&lt;h3&gt;Motor (Single-Phase, Two-Terminal)&lt;/h3&gt;</description>
<wire x1="-1.27" y1="3.81" x2="-1.27" y2="1.778" width="0.2032" layer="94"/>
<wire x1="-1.27" y1="3.81" x2="0" y2="3.81" width="0.2032" layer="94"/>
<wire x1="0" y1="3.81" x2="1.27" y2="3.81" width="0.2032" layer="94"/>
<wire x1="1.27" y1="3.81" x2="1.27" y2="1.778" width="0.2032" layer="94"/>
<wire x1="1.27" y1="-3.81" x2="1.27" y2="-1.778" width="0.2032" layer="94"/>
<wire x1="1.27" y1="-3.81" x2="0" y2="-3.81" width="0.2032" layer="94"/>
<wire x1="0" y1="-3.81" x2="-1.27" y2="-3.81" width="0.2032" layer="94"/>
<wire x1="-1.27" y1="-3.81" x2="-1.27" y2="-1.778" width="0.2032" layer="94"/>
<wire x1="0" y1="5.08" x2="0" y2="3.81" width="0.1524" layer="94"/>
<wire x1="0" y1="-5.08" x2="0" y2="-3.81" width="0.1524" layer="94"/>
<wire x1="0.254" y1="3.302" x2="-0.254" y2="3.302" width="0.1524" layer="94"/>
<wire x1="0" y1="3.556" x2="0" y2="3.048" width="0.1524" layer="94"/>
<wire x1="0.254" y1="-3.302" x2="-0.254" y2="-3.302" width="0.1524" layer="94"/>
<circle x="0" y="0" radius="2.032" width="0.254" layer="94"/>
<text x="2.54" y="0" size="1.778" layer="95" font="vector">&gt;NAME</text>
<text x="2.54" y="-2.54" size="1.778" layer="96" font="vector">&gt;VALUE</text>
<pin name="+" x="0" y="5.08" visible="off" length="point" rot="R270"/>
<pin name="-" x="0" y="-5.08" visible="off" length="point" rot="R270"/>
</symbol>
</symbols>
<devicesets>
<deviceset name="MOTOR" urn="urn:adsk.eagle:component:38564/1" prefix="M" library_version="1">
<description>&lt;h3&gt;Motor (Single-Phase)&lt;/h3&gt;
&lt;p&gt;Two-terminal, single-phase motors.&lt;/p&gt;
&lt;h4&gt;SparkFun Products&lt;/h4&gt;
&lt;ul&gt;&lt;li&gt;&lt;a href="https://www.sparkfun.com/products/8449"&gt;Vibration Motor&lt;/a&gt; (ROB-08449)
&lt;br&gt;Physical dimension and wire connections for this powerful vibration motor. Motor has a self adhesive backing.&lt;/li&gt;&lt;/ul&gt;</description>
<gates>
<gate name="G$1" symbol="MOTOR" x="0" y="0"/>
</gates>
<devices>
<device name="10MM" package="VIBE-MOTOR-10MM">
<connects>
<connect gate="G$1" pin="+" pad="+"/>
<connect gate="G$1" pin="-" pad="-"/>
</connects>
<package3dinstances>
<package3dinstance package3d_urn="urn:adsk.eagle:package:38555/1"/>
</package3dinstances>
<technologies>
<technology name="">
<attribute name="PROD_ID" value="COMP-08572"/>
<attribute name="SF_SKU" value="ROB-08449"/>
</technology>
</technologies>
</device>
</devices>
</deviceset>
</devicesets>
</library>
<library name="battery" urn="urn:adsk.eagle:library:109">
<description>&lt;b&gt;Lithium Batteries and NC Accus&lt;/b&gt;&lt;p&gt;
&lt;author&gt;Created by librarian@cadsoft.de&lt;/author&gt;</description>
<packages>
<package name="1V60R" urn="urn:adsk.eagle:footprint:4543/1" library_version="3">
<description>&lt;b&gt;NC ACCU&lt;/b&gt; Varta</description>
<wire x1="-2.794" y1="-3.302" x2="-2.794" y2="-0.762" width="0.1524" layer="21"/>
<wire x1="3.937" y1="-1.778" x2="3.937" y2="-0.762" width="0.1524" layer="51"/>
<wire x1="-2.794" y1="-5.842" x2="-2.794" y2="-3.302" width="0.1524" layer="51"/>
<wire x1="-2.794" y1="3.302" x2="-2.794" y2="5.842" width="0.1524" layer="51"/>
<wire x1="-2.286" y1="-5.842" x2="-2.794" y2="-5.842" width="0.1524" layer="51"/>
<wire x1="-2.286" y1="-5.842" x2="-2.286" y2="-3.302" width="0.1524" layer="51"/>
<wire x1="-2.286" y1="-3.302" x2="-2.286" y2="-0.762" width="0.1524" layer="21"/>
<wire x1="-2.286" y1="3.302" x2="-2.286" y2="5.842" width="0.1524" layer="51"/>
<wire x1="3.429" y1="-1.778" x2="3.429" y2="-0.762" width="0.1524" layer="51"/>
<wire x1="-2.286" y1="5.842" x2="-2.794" y2="5.842" width="0.1524" layer="51"/>
<wire x1="-1.905" y1="0" x2="-0.889" y2="0" width="0.254" layer="21"/>
<wire x1="-1.397" y1="0.508" x2="-1.397" y2="-0.508" width="0.254" layer="21"/>
<wire x1="2.54" y1="0.635" x2="2.54" y2="-0.635" width="0.254" layer="51"/>
<wire x1="3.429" y1="1.778" x2="3.429" y2="2.54" width="0.1524" layer="21"/>
<wire x1="-0.508" y1="6.477" x2="-1.397" y2="6.477" width="0.1524" layer="21"/>
<wire x1="-1.651" y1="-6.477" x2="-1.397" y2="-6.477" width="0.1524" layer="51"/>
<wire x1="3.429" y1="-8.382" x2="3.429" y2="-2.54" width="0.1524" layer="21"/>
<wire x1="3.937" y1="-1.778" x2="3.937" y2="-2.54" width="0.1524" layer="21"/>
<wire x1="3.937" y1="-2.54" x2="3.429" y2="-2.54" width="0.1524" layer="21"/>
<wire x1="3.429" y1="-2.54" x2="3.429" y2="-1.778" width="0.1524" layer="21"/>
<wire x1="3.937" y1="1.778" x2="3.937" y2="2.54" width="0.1524" layer="21"/>
<wire x1="3.937" y1="2.54" x2="3.429" y2="2.54" width="0.1524" layer="21"/>
<wire x1="3.429" y1="2.54" x2="3.429" y2="8.382" width="0.1524" layer="21"/>
<wire x1="-2.286" y1="-0.762" x2="-2.794" y2="-0.762" width="0.1524" layer="21"/>
<wire x1="-2.286" y1="-0.762" x2="-2.286" y2="0.762" width="0.1524" layer="21"/>
<wire x1="-2.794" y1="-0.762" x2="-2.794" y2="0.762" width="0.1524" layer="21"/>
<wire x1="-2.286" y1="0.762" x2="-2.794" y2="0.762" width="0.1524" layer="21"/>
<wire x1="-2.286" y1="0.762" x2="-2.286" y2="3.302" width="0.1524" layer="21"/>
<wire x1="-2.794" y1="0.762" x2="-2.794" y2="3.302" width="0.1524" layer="21"/>
<wire x1="3.937" y1="-0.762" x2="3.429" y2="-0.762" width="0.1524" layer="51"/>
<wire x1="3.937" y1="-0.762" x2="3.937" y2="0.762" width="0.1524" layer="51"/>
<wire x1="3.429" y1="-0.762" x2="3.429" y2="0.762" width="0.1524" layer="51"/>
<wire x1="3.937" y1="0.762" x2="3.429" y2="0.762" width="0.1524" layer="51"/>
<wire x1="3.937" y1="0.762" x2="3.937" y2="1.778" width="0.1524" layer="51"/>
<wire x1="3.429" y1="0.762" x2="3.429" y2="1.778" width="0.1524" layer="51"/>
<wire x1="-0.508" y1="6.477" x2="-0.508" y2="8.382" width="0.1524" layer="21"/>
<wire x1="-0.508" y1="8.382" x2="3.429" y2="8.382" width="0.1524" layer="21"/>
<wire x1="-0.508" y1="-8.382" x2="3.429" y2="-8.382" width="0.1524" layer="21"/>
<wire x1="-0.508" y1="6.477" x2="-0.508" y2="-6.477" width="0.1524" layer="21"/>
<wire x1="-0.508" y1="-6.477" x2="-0.508" y2="-8.382" width="0.1524" layer="21"/>
<wire x1="-2.286" y1="-5.842" x2="-1.651" y2="-6.477" width="0.1524" layer="51" curve="90"/>
<wire x1="-2.286" y1="5.842" x2="-1.651" y2="6.477" width="0.1524" layer="51" curve="-90"/>
<wire x1="-1.397" y1="-6.477" x2="-0.508" y2="-6.477" width="0.1524" layer="21"/>
<wire x1="-1.651" y1="6.477" x2="-1.397" y2="6.477" width="0.1524" layer="51"/>
<pad name="+" x="-2.54" y="-5.08" drill="1.3208" diameter="3.1496" shape="octagon"/>
<pad name="+@1" x="-2.54" y="5.08" drill="1.3208" diameter="3.1496" shape="octagon"/>
<pad name="-" x="3.683" y="0" drill="1.3208" diameter="3.1496" shape="octagon"/>
<text x="-3.429" y="-2.54" size="1.27" layer="25" ratio="10" rot="R90">&gt;NAME</text>
<text x="0.381" y="-7.62" size="1.27" layer="21" ratio="10">NC</text>
<text x="1.27" y="-3.81" size="1.27" layer="27" ratio="10" rot="R90">&gt;VALUE</text>
</package>
</packages>
<packages3d>
<package3d name="1V60R" urn="urn:adsk.eagle:package:4592/1" type="box" library_version="3">
<description>NC ACCU Varta</description>
<packageinstances>
<packageinstance name="1V60R"/>
</packageinstances>
</package3d>
</packages3d>
<symbols>
<symbol name="1V2+2" urn="urn:adsk.eagle:symbol:4517/1" library_version="3">
<wire x1="-1.905" y1="0.635" x2="-1.905" y2="0" width="0.4064" layer="94"/>
<wire x1="-2.54" y1="0" x2="-1.905" y2="0" width="0.1524" layer="94"/>
<wire x1="-1.905" y1="0" x2="-1.905" y2="-0.635" width="0.4064" layer="94"/>
<wire x1="-0.635" y1="2.54" x2="-0.635" y2="0" width="0.4064" layer="94"/>
<wire x1="-0.635" y1="0" x2="2.54" y2="0" width="0.1524" layer="94"/>
<wire x1="-0.635" y1="0" x2="-0.635" y2="-2.54" width="0.4064" layer="94"/>
<text x="-2.54" y="3.175" size="1.778" layer="95">&gt;NAME</text>
<text x="-2.54" y="-5.08" size="1.778" layer="96">&gt;VALUE</text>
<pin name="+" x="5.08" y="0" visible="pad" length="short" direction="pas" rot="R180"/>
<pin name="-" x="-5.08" y="0" visible="pad" length="short" direction="pas"/>
<pin name="+@1" x="2.54" y="0" visible="off" length="point" direction="pas" rot="R180"/>
</symbol>
</symbols>
<devicesets>
<deviceset name="1V60R" urn="urn:adsk.eagle:component:4642/2" prefix="G" library_version="3">
<description>&lt;b&gt;NC ACCU&lt;/b&gt; Varta</description>
<gates>
<gate name="1" symbol="1V2+2" x="0" y="0"/>
</gates>
<devices>
<device name="" package="1V60R">
<connects>
<connect gate="1" pin="+" pad="+"/>
<connect gate="1" pin="+@1" pad="+@1"/>
<connect gate="1" pin="-" pad="-"/>
</connects>
<package3dinstances>
<package3dinstance package3d_urn="urn:adsk.eagle:package:4592/1"/>
</package3dinstances>
<technologies>
<technology name="">
<attribute name="POPULARITY" value="1" constant="no"/>
</technology>
</technologies>
</device>
</devices>
</deviceset>
</devicesets>
</library>
</libraries>
<attributes>
</attributes>
<variantdefs>
</variantdefs>
<classes>
<class number="0" name="default" width="0" drill="0">
</class>
</classes>
<parts>
<part name="R1" library="adafruit" library_urn="urn:adsk.eagle:library:420" deviceset="FLIPFLOP-RES" device="" package3d_urn="urn:adsk.eagle:package:6240726/1" value="1.5 Ω"/>
<part name="R2" library="adafruit" library_urn="urn:adsk.eagle:library:420" deviceset="FLIPFLOP-RES" device="" package3d_urn="urn:adsk.eagle:package:6240726/1" value="4.5 Ω"/>
<part name="X_1" library="ngspice-simulation" library_urn="urn:adsk.eagle:library:527439" deviceset="GND" device=""/>
<part name="BAT1" library="battery" library_urn="urn:adsk.eagle:library:109" deviceset="1V60R" device="" package3d_urn="urn:adsk.eagle:package:4592/1" value="12 V"/>
<part name="M1" library="SparkFun-Electromechanical" library_urn="urn:adsk.eagle:library:516" deviceset="MOTOR" device="10MM" package3d_urn="urn:adsk.eagle:package:38555/1" value="2 A"/>
</parts>
<sheets>
<sheet>
<plain>
<text x="40.64" y="66.294" size="1.778" layer="97">Vin</text>
<text x="39.624" y="64.008" size="1.778" layer="97">12 V</text>
<text x="48.26" y="48.26" size="1.778" layer="97">Vout</text>
<text x="48.26" y="45.72" size="1.778" layer="97">9 V</text>
<wire x1="43.18" y1="45.72" x2="48.26" y2="48.26" width="0.1524" layer="97"/>
</plain>
<instances>
<instance part="R1" gate="G$1" x="43.18" y="58.42" smashed="yes" rot="MR90">
<attribute name="NAME" x="48.26" y="57.912" size="1.778" layer="95" rot="MR0"/>
<attribute name="VALUE" x="41.402" y="58.166" size="1.778" layer="96" rot="MR0"/>
</instance>
<instance part="R2" gate="G$1" x="43.18" y="22.86" smashed="yes" rot="MR90">
<attribute name="NAME" x="48.26" y="21.59" size="1.778" layer="95" rot="MR0"/>
<attribute name="VALUE" x="41.402" y="21.844" size="1.778" layer="96" rot="MR0"/>
</instance>
<instance part="X_1" gate="G$1" x="43.18" y="15.24" smashed="yes"/>
<instance part="BAT1" gate="1" x="15.24" y="43.18" smashed="yes" rot="R90">
<attribute name="NAME" x="12.446" y="44.45" size="1.778" layer="95" rot="R180"/>
<attribute name="VALUE" x="23.622" y="44.45" size="1.778" layer="96" rot="R180"/>
</instance>
<instance part="M1" gate="G$1" x="43.18" y="40.64" smashed="yes">
<attribute name="NAME" x="45.72" y="40.64" size="1.778" layer="95" font="vector"/>
<attribute name="VALUE" x="45.72" y="38.1" size="1.778" layer="96" font="vector"/>
</instance>
</instances>
<busses>
</busses>
<nets>
<net name="N$1" class="0">
<segment>
<pinref part="R1" gate="G$1" pin="1"/>
<wire x1="43.18" y1="53.34" x2="43.18" y2="45.72" width="0.1524" layer="91"/>
<pinref part="M1" gate="G$1" pin="+"/>
</segment>
</net>
<net name="0" class="0">
<segment>
<pinref part="X_1" gate="G$1" pin="0"/>
<pinref part="R2" gate="G$1" pin="1"/>
<wire x1="43.18" y1="15.24" x2="43.18" y2="17.78" width="0.1524" layer="91"/>
<wire x1="15.24" y1="15.24" x2="43.18" y2="15.24" width="0.1524" layer="91"/>
<junction x="43.18" y="15.24"/>
<pinref part="BAT1" gate="1" pin="-"/>
<wire x1="15.24" y1="38.1" x2="15.24" y2="15.24" width="0.1524" layer="91"/>
</segment>
</net>
<net name="12V" class="0">
<segment>
<pinref part="R1" gate="G$1" pin="2"/>
<wire x1="15.24" y1="63.5" x2="43.18" y2="63.5" width="0.1524" layer="91"/>
<pinref part="BAT1" gate="1" pin="+"/>
<wire x1="15.24" y1="48.26" x2="15.24" y2="63.5" width="0.1524" layer="91"/>
</segment>
</net>
<net name="N$3" class="0">
<segment>
<pinref part="R2" gate="G$1" pin="2"/>
<pinref part="M1" gate="G$1" pin="-"/>
<wire x1="43.18" y1="35.56" x2="43.18" y2="27.94" width="0.1524" layer="91"/>
</segment>
</net>
</nets>
</sheet>
</sheets>
</schematic>
</drawing>
<compatibility>
<note version="8.2" severity="warning">
Since Version 8.2, EAGLE supports online libraries. The ids
of those online libraries will not be understood (or retained)
with this version.
</note>
<note version="8.3" severity="warning">
Since Version 8.3, EAGLE supports URNs for individual library
assets (packages, symbols, and devices). The URNs of those assets
will not be understood (or retained) with this version.
</note>
<note version="8.3" severity="warning">
Since Version 8.3, EAGLE supports the association of 3D packages
with devices in libraries, schematics, and board files. Those 3D
packages will not be understood (or retained) with this version.
</note>
</compatibility>
</eagle>
